treatment,weight
no.nitrogen,0.32
no.nitrogen,0.53
no.nitrogen,0.28
no.nitrogen,0.37
no.nitrogen,0.47
no.nitrogen,0.43
no.nitrogen,0.36
no.nitrogen,0.42
no.nitrogen,0.38
no.nitrogen,0.43
nitrogen,0.26
nitrogen,0.43
nitrogen,0.47
nitrogen,0.49
nitrogen,0.52
nitrogen,0.75
nitrogen,0.79
nitrogen,0.86
nitrogen,0.62
nitrogen,0.46